{
  "project_info": {
    "project_number": "828246131735",
    "firebase_url": "https://registraduria-457d8.firebaseio.com",
    "project_id": "registraduria-457d8",
    "storage_bucket": "registraduria-457d8.appspot.com"
  },
  "client": [
    {
      "client_info": {
        "mobilesdk_app_id": "1:828246131735:android:4c4392ea169d0a3c1dc852",
        "android_client_info": {
          "package_name": "com.unbosque.registraduria"
        }
      },
      "oauth_client": [
        {
          "client_id": "828246131735-bdkert2i6lampaa9jt7ulgms97224av4.apps.googleusercontent.com",
          "client_type": 3
        }
      ],
      "api_key": [
        {
          "current_key": "AIzaSyA3mCuq35j17SspDwv3Td__SZGYU5ml9eU"
        }
      ],
      "services": {
        "appinvite_service": {
          "other_platform_oauth_client": [
            {
              "client_id": "828246131735-bdkert2i6lampaa9jt7ulgms97224av4.apps.googleusercontent.com",
              "client_type": 3
            }
          ]
        }
      }
    }
  ],
  "configuration_version": "1"
}